…
**Creating New Tibble**

``` r
#Creating variable for new tibble
van.trees.new <- select(vancouver_trees, tree_id, species_name, root_barrier,  neighbourhood_name, street_side_name,  height_range_id, diameter)

#Printing new tibble
print(van.trees.new)
```

    ## # A tibble: 146,611 × 7
    ##    tree_id species_name root_barrier neighbourhood_name       street_side_name
    ##      <dbl> <chr>        <chr>        <chr>                    <chr>           
    ##  1  149556 AMERICANA    N            MARPOLE                  EVEN            
    ##  2  149563 SERRATA      N            MARPOLE                  EVEN            
    ##  3  149579 JAPONICA     N            KENSINGTON-CEDAR COTTAGE EVEN            
    ##  4  149590 AMERICANA    N            KENSINGTON-CEDAR COTTAGE EVEN            
    ##  5  149604 CAMPESTRE    N            KENSINGTON-CEDAR COTTAGE EVEN            
    ##  6  149616 CALLERYANA   N            MARPOLE                  ODD             
    ##  7  149617 PLATANOIDES  N            KENSINGTON-CEDAR COTTAGE ODD             
    ##  8  149618 PLATANOIDES  N            KENSINGTON-CEDAR COTTAGE ODD             
    ##  9  149619 PLATANOIDES  N            KENSINGTON-CEDAR COTTAGE ODD             
    ## 10  149625 AMERICANA    N            KENSINGTON-CEDAR COTTAGE EVEN            
    ## # ℹ 146,601 more rows
    ## # ℹ 2 more variables: height_range_id <dbl>, diameter <dbl>
…
