…
    ## `summarise()` has grouped output by 'std_street'. You can override using the
    ## `.groups` argument.

``` r
#Making count variable in descending order
large_density_desc <-arrange(large_density_count, desc(n))

print(large_density_desc)
```

    ## # A tibble: 18,154 × 3
    ## # Groups:   std_street [805]
    ##    std_street       species_name      n
    ##    <chr>            <chr>         <int>
    ##  1 W 13TH AV        PLATANOIDES     377
    ##  2 W 15TH AV        PLATANOIDES     276
    ##  3 KINGSWAY         RUBRUM          273
    ##  4 W 11TH AV        PLATANOIDES     254
    ##  5 E 45TH AV        EUCHLORA   X    248
    ##  6 E 1ST AV         BETULUS         237
    ##  7 W 14TH AV        HIPPOCASTANUM   224
    ##  8 E 22ND AV        SERRULATA       212
    ##  9 W KING EDWARD AV PLATANOIDES     212
    ## 10 W 6TH AV         PLATANOIDES     204
    ## # ℹ 18,144 more rows

``` r
#Creating proportion variable
large_density_prop <- large_density_desc %>% 
  mutate(n = n / sum(n)) %>% 
  pivot_wider(names_from = std_street, values_from = n)

print(large_density_prop)
```

    ## # A tibble: 283 × 806
    ##    species_name  `W 13TH AV` `W 15TH AV` KINGSWAY `W 11TH AV` `E 45TH AV`
    ##    <chr>               <dbl>       <dbl>    <dbl>       <dbl>       <dbl>
    ##  1 PLATANOIDES       0.298       0.251    0.0121      0.295       0.0765 
    ##  2 RUBRUM            0.0111      0.0255   0.330       0.0186      0.0264 
    ##  3 EUCHLORA   X      0.00949     0.0364   0.0145     NA           0.345  
    ##  4 BETULUS           0.0103      0.00818  0.0109      0.00116     0.0417 
    ##  5 HIPPOCASTANUM     0.0190      0.0436  NA           0.0244      0.00139
    ##  6 SERRULATA         0.0119      0.0627   0.0145      0.0279      0.0431 
    ##  7 SYLVATICA         0.0799      0.0109   0.100       0.0453      0.00556
    ##  8 AMERICANA         0.132       0.0355   0.00362     0.0325      0.0223 
    ##  9 CERASIFERA        0.0293      0.0436   0.00966     0.0372      0.0181 
    ## 10 KOBUS             0.00475    NA        0.00604     0.0267      0.0223 
    ## # ℹ 273 more rows
    ## # ℹ 800 more variables: `E 1ST AV` <dbl>, `W 14TH AV` <dbl>, `E 22ND AV` <dbl>,
    ## #   `W KING EDWARD AV` <dbl>, `W 6TH AV` <dbl>, `W BROADWAY` <dbl>,
    ## #   `W 16TH AV` <dbl>, `W 7TH AV` <dbl>, `GRANVILLE ST` <dbl>,
    ## #   `CONNAUGHT DRIVE` <dbl>, `E HASTINGS ST` <dbl>, `ANGUS DRIVE` <dbl>,
    ## #   `E KENT AV NORTH` <dbl>, `E 55TH AV` <dbl>, `W 22ND AV` <dbl>,
    ## #   `BOUNDARY ROAD` <dbl>, `W 26TH AV` <dbl>, `HEATHER ST` <dbl>, …

``` r
#Creating W13AV count variable
W13AV_count <- large_density_count %>%
   filter(std_street %in% c("W 13TH AV"))

print(W13AV_count) 
```

    ## # A tibble: 88 × 3
    ## # Groups:   std_street [1]
    ##    std_street species_name       n
    ##    <chr>      <chr>          <int>
    ##  1 W 13TH AV  ABIES              1
    ##  2 W 13TH AV  ACERIFOLIA   X    10
    ##  3 W 13TH AV  ACUTISSIMA         2
    ##  4 W 13TH AV  ALNIFOLIA          3
    ##  5 W 13TH AV  AMERICANA        167
    ##  6 W 13TH AV  ANAGYROIDES        1
    ##  7 W 13TH AV  AQUIFOLIUM         1
    ##  8 W 13TH AV  ARIA               3
    ##  9 W 13TH AV  AUCUPARIA          2
    ## 10 W 13TH AV  AVIUM              1
    ## # ℹ 78 more rows
…
    ## # A tibble: 1 × 3
    ##   species_name height_range_id diameter
    ##   <chr>                  <dbl>    <dbl>
    ## 1 JAPONICA                   2      435

``` r
#Determining species names with min diameter   
min_diam <- vancouver_trees %>% select(species_name, height_range_id, diameter) %>% 
  filter(diameter == 0)

print(min_diam)
```

    ## # A tibble: 92 × 3
    ##    species_name  height_range_id diameter
    ##    <chr>                   <dbl>    <dbl>
    ##  1 STYRACIFLUA                 2        0
    ##  2 CAMPESTRE                   0        0
    ##  3 CERASIFERA                  0        0
    ##  4 X YEDOENSIS                 0        0
    ##  5 XX                          0        0
    ##  6 GRANDIFLORA X               0        0
    ##  7 PERSICA                     0        0
    ##  8 CERASIFERA                  0        0
    ##  9 JAPONICA                    0        0
    ## 10 PLATANOIDES                 6        0
    ## # ℹ 82 more rows
…
``` r
#Determining species names with min height   
min_height <- vancouver_trees %>% select(species_name, height_range_id, diameter) %>% 
    filter( height_range_id == 0)

print(min_height)
```

    ## # A tibble: 214 × 3
    ##    species_name height_range_id diameter
    ##    <chr>                  <dbl>    <dbl>
    ##  1 AMERICANA                  0      4  
    ##  2 CAMPESTRE                  0      6  
    ##  3 ARIA                       0     28.5
    ##  4 CAMPESTRE                  0      0  
    ##  5 CERASIFERA                 0      0  
    ##  6 RUBRUM                     0      3  
    ##  7 RUBRUM                     0      3  
    ##  8 X YEDOENSIS                0      0  
    ##  9 SARGENTII                  0      6.5
    ## 10 SARGENTII                  0      8  
    ## # ℹ 204 more rows
…
#### Analysis Q#3: Does the street side name have effect on the growth of the trees in terms of height and species, or is it negligible?

**Summarizing Q1: Compute range, mean, and two other summary
statistics**

``` r
#Widening dataset with street side names 
street_wide <- vancouver_trees %>% 
  pivot_wider(names_from = street_side_name,
                values_from = height_range_id)

print(street_wide)
```

    ## # A tibble: 146,611 × 24
    ##    tree_id civic_number std_street    genus_name species_name cultivar_name  
    ##      <dbl>        <dbl> <chr>         <chr>      <chr>        <chr>          
    ##  1  149556          494 W 58TH AV     ULMUS      AMERICANA    BRANDON        
    ##  2  149563          450 W 58TH AV     ZELKOVA    SERRATA      <NA>           
    ##  3  149579         4994 WINDSOR ST    STYRAX     JAPONICA     <NA>           
    ##  4  149590          858 E 39TH AV     FRAXINUS   AMERICANA    AUTUMN APPLAUSE
    ##  5  149604         5032 WINDSOR ST    ACER       CAMPESTRE    <NA>           
    ##  6  149616          585 W 61ST AV     PYRUS      CALLERYANA   CHANTICLEER    
    ##  7  149617         4909 SHERBROOKE ST ACER       PLATANOIDES  COLUMNARE      
    ##  8  149618         4925 SHERBROOKE ST ACER       PLATANOIDES  COLUMNARE      
    ##  9  149619         4969 SHERBROOKE ST ACER       PLATANOIDES  COLUMNARE      
    ## 10  149625          720 E 39TH AV     FRAXINUS   AMERICANA    AUTUMN APPLAUSE
    ## # ℹ 146,601 more rows
    ## # ℹ 18 more variables: common_name <chr>, assigned <chr>, root_barrier <chr>,
    ## #   plant_area <chr>, on_street_block <dbl>, on_street <chr>,
    ## #   neighbourhood_name <chr>, diameter <dbl>, curb <chr>, date_planted <date>,
    ## #   longitude <dbl>, latitude <dbl>, EVEN <dbl>, ODD <dbl>, MED <dbl>,
    ## #   PARK <dbl>, `BIKE MED` <dbl>, GREENWAY <dbl>

``` r
#Creating variable of only street side names 
street_height <- street_wide %>% 
    select(ODD, EVEN, MED, PARK, `BIKE MED`, GREENWAY)

print(street_height)
```

    ## # A tibble: 146,611 × 6
    ##      ODD  EVEN   MED  PARK `BIKE MED` GREENWAY
    ##    <dbl> <dbl> <dbl> <dbl>      <dbl>    <dbl>
    ##  1    NA     2    NA    NA         NA       NA
    ##  2    NA     4    NA    NA         NA       NA
    ##  3    NA     3    NA    NA         NA       NA
    ##  4    NA     4    NA    NA         NA       NA
    ##  5    NA     2    NA    NA         NA       NA
    ##  6     2    NA    NA    NA         NA       NA
    ##  7     3    NA    NA    NA         NA       NA
    ##  8     3    NA    NA    NA         NA       NA
    ##  9     2    NA    NA    NA         NA       NA
    ## 10    NA     2    NA    NA         NA       NA
    ## # ℹ 146,601 more rows
…
### 2.1 (2 points)

Based on the definition above, can you identify if your data is tidy or
untidy? Go through all your columns, or if you have \>8 variables, just
pick 8, and explain whether the data is untidy or tidy.

<!--------------------------- Start your work below --------------------------->

``` r
#Printing dataset for observation
print(vancouver_trees)
```

    ## # A tibble: 146,611 × 20
    ##    tree_id civic_number std_street    genus_name species_name cultivar_name  
    ##      <dbl>        <dbl> <chr>         <chr>      <chr>        <chr>          
    ##  1  149556          494 W 58TH AV     ULMUS      AMERICANA    BRANDON        
    ##  2  149563          450 W 58TH AV     ZELKOVA    SERRATA      <NA>           
    ##  3  149579         4994 WINDSOR ST    STYRAX     JAPONICA     <NA>           
    ##  4  149590          858 E 39TH AV     FRAXINUS   AMERICANA    AUTUMN APPLAUSE
    ##  5  149604         5032 WINDSOR ST    ACER       CAMPESTRE    <NA>           
    ##  6  149616          585 W 61ST AV     PYRUS      CALLERYANA   CHANTICLEER    
    ##  7  149617         4909 SHERBROOKE ST ACER       PLATANOIDES  COLUMNARE      
    ##  8  149618         4925 SHERBROOKE ST ACER       PLATANOIDES  COLUMNARE      
    ##  9  149619         4969 SHERBROOKE ST ACER       PLATANOIDES  COLUMNARE      
    ## 10  149625          720 E 39TH AV     FRAXINUS   AMERICANA    AUTUMN APPLAUSE
    ## # ℹ 146,601 more rows
    ## # ℹ 14 more variables: common_name <chr>, assigned <chr>, root_barrier <chr>,
    ## #   plant_area <chr>, on_street_block <dbl>, on_street <chr>,
    ## #   neighbourhood_name <chr>, street_side_name <chr>, height_range_id <dbl>,
    ## #   diameter <dbl>, curb <chr>, date_planted <date>, longitude <dbl>,
    ## #   latitude <dbl>
…
Be sure to explain your reasoning for this task. Show us the “before”
and “after”.

<!--------------------------- Start your work below --------------------------->

``` r
#Part A: Tidy data to Untidy Data 
tidy_untidy <- vancouver_trees %>% 
  pivot_longer(cols = c("genus_name", "species_name"), 
               names_to  = "Name", 
               values_to = "Genus and Species")
print(tidy_untidy)
```

    ## # A tibble: 293,222 × 20
    ##    tree_id civic_number std_street cultivar_name   common_name         assigned
    ##      <dbl>        <dbl> <chr>      <chr>           <chr>               <chr>   
    ##  1  149556          494 W 58TH AV  BRANDON         BRANDON ELM         N       
    ##  2  149556          494 W 58TH AV  BRANDON         BRANDON ELM         N       
    ##  3  149563          450 W 58TH AV  <NA>            JAPANESE ZELKOVA    N       
    ##  4  149563          450 W 58TH AV  <NA>            JAPANESE ZELKOVA    N       
    ##  5  149579         4994 WINDSOR ST <NA>            JAPANESE SNOWBELL   N       
    ##  6  149579         4994 WINDSOR ST <NA>            JAPANESE SNOWBELL   N       
    ##  7  149590          858 E 39TH AV  AUTUMN APPLAUSE AUTUMN APPLAUSE ASH Y       
    ##  8  149590          858 E 39TH AV  AUTUMN APPLAUSE AUTUMN APPLAUSE ASH Y       
    ##  9  149604         5032 WINDSOR ST <NA>            HEDGE MAPLE         N       
    ## 10  149604         5032 WINDSOR ST <NA>            HEDGE MAPLE         N       
    ## # ℹ 293,212 more rows
    ## # ℹ 14 more variables: root_barrier <chr>, plant_area <chr>,
    ## #   on_street_block <dbl>, on_street <chr>, neighbourhood_name <chr>,
    ## #   street_side_name <chr>, height_range_id <dbl>, diameter <dbl>, curb <chr>,
    ## #   date_planted <date>, longitude <dbl>, latitude <dbl>, Name <chr>,
    ## #   `Genus and Species` <chr>

``` r
#Part A: Untidy data Back to Tidy Data 
untidy_original <-tidy_untidy %>% 
  pivot_wider( names_from  = "Name", 
               values_from = "Genus and Species")

print(untidy_original)
```

    ## # A tibble: 146,611 × 20
    ##    tree_id civic_number std_street    cultivar_name   common_name       assigned
    ##      <dbl>        <dbl> <chr>         <chr>           <chr>             <chr>   
    ##  1  149556          494 W 58TH AV     BRANDON         BRANDON ELM       N       
    ##  2  149563          450 W 58TH AV     <NA>            JAPANESE ZELKOVA  N       
    ##  3  149579         4994 WINDSOR ST    <NA>            JAPANESE SNOWBELL N       
    ##  4  149590          858 E 39TH AV     AUTUMN APPLAUSE AUTUMN APPLAUSE … Y       
    ##  5  149604         5032 WINDSOR ST    <NA>            HEDGE MAPLE       N       
    ##  6  149616          585 W 61ST AV     CHANTICLEER     CHANTICLEER PEAR  N       
    ##  7  149617         4909 SHERBROOKE ST COLUMNARE       COLUMNAR NORWAY … N       
    ##  8  149618         4925 SHERBROOKE ST COLUMNARE       COLUMNAR NORWAY … N       
    ##  9  149619         4969 SHERBROOKE ST COLUMNARE       COLUMNAR NORWAY … N       
    ## 10  149625          720 E 39TH AV     AUTUMN APPLAUSE AUTUMN APPLAUSE … N       
    ## # ℹ 146,601 more rows
    ## # ℹ 14 more variables: root_barrier <chr>, plant_area <chr>,
    ## #   on_street_block <dbl>, on_street <chr>, neighbourhood_name <chr>,
    ## #   street_side_name <chr>, height_range_id <dbl>, diameter <dbl>, curb <chr>,
    ## #   date_planted <date>, longitude <dbl>, latitude <dbl>, genus_name <chr>,
    ## #   species_name <chr>

``` r
#Part B: Untidy Data to Tidy Data 
untidy_tidy <- vancouver_trees %>%  drop_na()

print(untidy_tidy)
```

    ## # A tibble: 41,859 × 20
    ##    tree_id civic_number std_street    genus_name species_name cultivar_name  
    ##      <dbl>        <dbl> <chr>         <chr>      <chr>        <chr>          
    ##  1  149556          494 W 58TH AV     ULMUS      AMERICANA    BRANDON        
    ##  2  149590          858 E 39TH AV     FRAXINUS   AMERICANA    AUTUMN APPLAUSE
    ##  3  149617         4909 SHERBROOKE ST ACER       PLATANOIDES  COLUMNARE      
    ##  4  149618         4925 SHERBROOKE ST ACER       PLATANOIDES  COLUMNARE      
    ##  5  149619         4969 SHERBROOKE ST ACER       PLATANOIDES  COLUMNARE      
    ##  6  149625          720 E 39TH AV     FRAXINUS   AMERICANA    AUTUMN APPLAUSE
    ##  7  149640         6968 SELKIRK ST    ACER       PLATANOIDES  COLUMNARE      
    ##  8  149673         5241 WINDSOR ST    FRAXINUS   OXYCARPA     RAYWOOD        
    ##  9  149683         7011 SELKIRK ST    ACER       PLATANOIDES  COLUMNARE      
    ## 10  149684         1223 W 54TH AV     ACER       PLATANOIDES  COLUMNARE      
    ## # ℹ 41,849 more rows
    ## # ℹ 14 more variables: common_name <chr>, assigned <chr>, root_barrier <chr>,
    ## #   plant_area <chr>, on_street_block <dbl>, on_street <chr>,
    ## #   neighbourhood_name <chr>, street_side_name <chr>, height_range_id <dbl>,
    ## #   diameter <dbl>, curb <chr>, date_planted <date>, longitude <dbl>,
    ## #   latitude <dbl>
``` r
#Part B:Tidy Data Back to Untidy Data 
tidy_original <- vancouver_trees %>% full_join(untidy_tidy)
```

    ## Joining with `by = join_by(tree_id, civic_number, std_street, genus_name,
    ## species_name, cultivar_name, common_name, assigned, root_barrier, plant_area,
    ## on_street_block, on_street, neighbourhood_name, street_side_name,
    ## height_range_id, diameter, curb, date_planted, longitude, latitude)`

``` r
print(tidy_original)
```

    ## # A tibble: 146,611 × 20
    ##    tree_id civic_number std_street    genus_name species_name cultivar_name  
    ##      <dbl>        <dbl> <chr>         <chr>      <chr>        <chr>          
    ##  1  149556          494 W 58TH AV     ULMUS      AMERICANA    BRANDON        
    ##  2  149563          450 W 58TH AV     ZELKOVA    SERRATA      <NA>           
    ##  3  149579         4994 WINDSOR ST    STYRAX     JAPONICA     <NA>           
    ##  4  149590          858 E 39TH AV     FRAXINUS   AMERICANA    AUTUMN APPLAUSE
    ##  5  149604         5032 WINDSOR ST    ACER       CAMPESTRE    <NA>           
    ##  6  149616          585 W 61ST AV     PYRUS      CALLERYANA   CHANTICLEER    
    ##  7  149617         4909 SHERBROOKE ST ACER       PLATANOIDES  COLUMNARE      
    ##  8  149618         4925 SHERBROOKE ST ACER       PLATANOIDES  COLUMNARE      
    ##  9  149619         4969 SHERBROOKE ST ACER       PLATANOIDES  COLUMNARE      
    ## 10  149625          720 E 39TH AV     FRAXINUS   AMERICANA    AUTUMN APPLAUSE
    ## # ℹ 146,601 more rows
    ## # ℹ 14 more variables: common_name <chr>, assigned <chr>, root_barrier <chr>,
    ## #   plant_area <chr>, on_street_block <dbl>, on_street <chr>,
    ## #   neighbourhood_name <chr>, street_side_name <chr>, height_range_id <dbl>,
    ## #   diameter <dbl>, curb <chr>, date_planted <date>, longitude <dbl>,
    ## #   latitude <dbl>
…
